2013-10-17 16:16:36,685 - Initializing Velocity, Calling init()...
2013-10-17 16:16:36,685 - Starting Apache Velocity v1.7 (compiled: 2010-11-19 12:14:37)
2013-10-17 16:16:36,685 - Default Properties File: org/apache/velocity/runtime/defaults/velocity.properties
2013-10-17 16:16:36,685 - Trying to use logger class org.apache.velocity.runtime.log.AvalonLogChute
2013-10-17 16:16:36,685 - Target log system for org.apache.velocity.runtime.log.AvalonLogChute is not available (java.lang.NoClassDefFoundError: org/apache/log/format/Formatter).  Falling back to next log system...
2013-10-17 16:16:36,686 - Trying to use logger class org.apache.velocity.runtime.log.Log4JLogChute
2013-10-17 16:16:36,686 - Using logger class org.apache.velocity.runtime.log.Log4JLogChute
2013-10-17 16:16:36,693 - ResourceLoader instantiated: org.ow2.frascati.implementation.velocity.ClassLoaderResourceLoader
2013-10-17 16:16:36,693 - ClasspathResourceLoader: initialization starting.
2013-10-17 16:16:36,694 - ClasspathResourceLoader: initialization complete.
2013-10-17 16:16:36,734 - ResourceCache: initialized (class org.apache.velocity.runtime.resource.ResourceCacheImpl) with class java.util.Collections$SynchronizedMap cache map.
2013-10-17 16:16:36,737 - Loaded System Directive: org.apache.velocity.runtime.directive.Stop
2013-10-17 16:16:36,739 - Loaded System Directive: org.apache.velocity.runtime.directive.Define
2013-10-17 16:16:36,740 - Loaded System Directive: org.apache.velocity.runtime.directive.Break
2013-10-17 16:16:36,741 - Loaded System Directive: org.apache.velocity.runtime.directive.Evaluate
2013-10-17 16:16:36,742 - Loaded System Directive: org.apache.velocity.runtime.directive.Literal
2013-10-17 16:16:36,744 - Loaded System Directive: org.apache.velocity.runtime.directive.Macro
2013-10-17 16:16:36,746 - Loaded System Directive: org.apache.velocity.runtime.directive.Parse
2013-10-17 16:16:36,749 - Loaded System Directive: org.apache.velocity.runtime.directive.Include
2013-10-17 16:16:36,751 - Loaded System Directive: org.apache.velocity.runtime.directive.Foreach
2013-10-17 16:16:36,830 - Created '20' parsers.
2013-10-17 16:16:36,838 - Velocimacro : "velocimacro.library" is not set.  Trying default library: VM_global_library.vm
2013-10-17 16:16:36,840 - Velocimacro : Default library not found.
2013-10-17 16:16:36,840 - Velocimacro : allowInline = true : VMs can be defined inline in templates
2013-10-17 16:16:36,840 - Velocimacro : allowInlineToOverride = false : VMs defined inline may NOT replace previous VM definitions
2013-10-17 16:16:36,840 - Velocimacro : allowInlineLocal = false : VMs defined inline will be global in scope if allowed.
2013-10-17 16:16:36,840 - Velocimacro : autoload off : VM system will not automatically reload global library macros
2013-10-17 16:16:36,916 - ResourceManager : found index.html with loader org.ow2.frascati.implementation.velocity.ClassLoaderResourceLoader
2013-10-17 16:16:36,950 - RHS of #set statement is null. Context will not be modified. index.html[line 2, column 1]
2013-10-17 16:16:36,950 - RHS of #set statement is null. Context will not be modified. index.html[line 3, column 1]
2013-10-17 16:16:36,964 - RHS of #set statement is null. Context will not be modified. index.html[line 8, column 1]
2013-10-17 16:16:36,981 - ResourceManager : found footer.html with loader org.ow2.frascati.implementation.velocity.ClassLoaderResourceLoader
2013-10-17 16:16:40,988 - ResourceManager : found index.html with loader org.ow2.frascati.implementation.velocity.ClassLoaderResourceLoader
2013-10-17 16:16:41,371 - RHS of #set statement is null. Context will not be modified. index.html[line 8, column 1]
2013-10-17 16:16:41,373 - ResourceManager : found footer.html with loader org.ow2.frascati.implementation.velocity.ClassLoaderResourceLoader
2013-10-17 16:16:44,567 - ResourceManager : found index.html with loader org.ow2.frascati.implementation.velocity.ClassLoaderResourceLoader
2013-10-17 16:16:44,605 - RHS of #set statement is null. Context will not be modified. index.html[line 8, column 1]
2013-10-17 16:16:44,607 - ResourceManager : found footer.html with loader org.ow2.frascati.implementation.velocity.ClassLoaderResourceLoader
2013-10-17 16:17:54,343 - ResourceManager : found index.html with loader org.ow2.frascati.implementation.velocity.ClassLoaderResourceLoader
2013-10-17 16:17:54,343 - Null reference [template 'index.html', line 1, column 1] : $username cannot be resolved.
2013-10-17 16:17:54,343 - Null reference [template 'index.html', line 2, column 1] : $password cannot be resolved.
2013-10-17 16:17:54,343 - RHS of #set statement is null. Context will not be modified. index.html[line 3, column 1]
2013-10-17 16:17:54,343 - RHS of #set statement is null. Context will not be modified. index.html[line 4, column 1]
2013-10-17 16:17:54,344 - RHS of #set statement is null. Context will not be modified. index.html[line 9, column 1]
2013-10-17 16:17:54,345 - ResourceManager : found footer.html with loader org.ow2.frascati.implementation.velocity.ClassLoaderResourceLoader
2013-10-17 16:17:58,270 - ResourceManager : found index.html with loader org.ow2.frascati.implementation.velocity.ClassLoaderResourceLoader
2013-10-17 16:17:58,271 - Null reference [template 'index.html', line 1, column 1] : $username cannot be resolved.
2013-10-17 16:17:58,271 - Null reference [template 'index.html', line 2, column 1] : $password cannot be resolved.
2013-10-17 16:17:58,290 - RHS of #set statement is null. Context will not be modified. index.html[line 9, column 1]
2013-10-17 16:17:58,291 - ResourceManager : found footer.html with loader org.ow2.frascati.implementation.velocity.ClassLoaderResourceLoader
2013-10-17 16:18:02,321 - ResourceManager : found index.html with loader org.ow2.frascati.implementation.velocity.ClassLoaderResourceLoader
2013-10-17 16:18:02,322 - Null reference [template 'index.html', line 1, column 1] : $username cannot be resolved.
2013-10-17 16:18:02,322 - Null reference [template 'index.html', line 2, column 1] : $password cannot be resolved.
2013-10-17 16:18:02,334 - RHS of #set statement is null. Context will not be modified. index.html[line 9, column 1]
2013-10-17 16:18:02,335 - ResourceManager : found footer.html with loader org.ow2.frascati.implementation.velocity.ClassLoaderResourceLoader
2013-10-17 16:18:11,892 - ResourceManager : found index.html with loader org.ow2.frascati.implementation.velocity.ClassLoaderResourceLoader
2013-10-17 16:18:11,910 - RHS of #set statement is null. Context will not be modified. index.html[line 10, column 1]
2013-10-17 16:18:11,911 - ResourceManager : found footer.html with loader org.ow2.frascati.implementation.velocity.ClassLoaderResourceLoader
2013-10-28 15:14:25,512 - Log4JLogChute initialized using file 'velocity.log'
2013-10-28 15:14:25,555 - Initializing Velocity, Calling init()...
2013-10-28 15:14:25,556 - Starting Apache Velocity v1.7 (compiled: 2010-11-19 12:14:37)
2013-10-28 15:14:25,556 - Default Properties File: org/apache/velocity/runtime/defaults/velocity.properties
2013-10-28 15:14:25,556 - Trying to use logger class org.apache.velocity.runtime.log.AvalonLogChute
2013-10-28 15:14:25,556 - Target log system for org.apache.velocity.runtime.log.AvalonLogChute is not available (java.lang.NoClassDefFoundError: org/apache/log/format/Formatter).  Falling back to next log system...
2013-10-28 15:14:25,556 - Trying to use logger class org.apache.velocity.runtime.log.Log4JLogChute
2013-10-28 15:14:25,556 - Using logger class org.apache.velocity.runtime.log.Log4JLogChute
2013-10-28 15:14:25,563 - ResourceLoader instantiated: org.ow2.frascati.implementation.velocity.ClassLoaderResourceLoader
2013-10-28 15:14:25,566 - ClasspathResourceLoader: initialization starting.
2013-10-28 15:14:25,566 - ClasspathResourceLoader: initialization complete.
2013-10-28 15:14:25,619 - ResourceCache: initialized (class org.apache.velocity.runtime.resource.ResourceCacheImpl) with class java.util.Collections$SynchronizedMap cache map.
2013-10-28 15:14:25,621 - Loaded System Directive: org.apache.velocity.runtime.directive.Stop
2013-10-28 15:14:25,623 - Loaded System Directive: org.apache.velocity.runtime.directive.Define
2013-10-28 15:14:25,624 - Loaded System Directive: org.apache.velocity.runtime.directive.Break
2013-10-28 15:14:25,626 - Loaded System Directive: org.apache.velocity.runtime.directive.Evaluate
2013-10-28 15:14:25,627 - Loaded System Directive: org.apache.velocity.runtime.directive.Literal
2013-10-28 15:14:25,629 - Loaded System Directive: org.apache.velocity.runtime.directive.Macro
2013-10-28 15:14:25,632 - Loaded System Directive: org.apache.velocity.runtime.directive.Parse
2013-10-28 15:14:25,633 - Loaded System Directive: org.apache.velocity.runtime.directive.Include
2013-10-28 15:14:25,634 - Loaded System Directive: org.apache.velocity.runtime.directive.Foreach
2013-10-28 15:14:25,685 - Created '20' parsers.
2013-10-28 15:14:25,694 - Velocimacro : "velocimacro.library" is not set.  Trying default library: VM_global_library.vm
2013-10-28 15:14:25,696 - Velocimacro : Default library not found.
2013-10-28 15:14:25,696 - Velocimacro : allowInline = true : VMs can be defined inline in templates
2013-10-28 15:14:25,696 - Velocimacro : allowInlineToOverride = false : VMs defined inline may NOT replace previous VM definitions
2013-10-28 15:14:25,696 - Velocimacro : allowInlineLocal = false : VMs defined inline will be global in scope if allowed.
2013-10-28 15:14:25,696 - Velocimacro : autoload off : VM system will not automatically reload global library macros
2013-10-28 15:14:25,821 - ResourceManager : found index.html with loader org.ow2.frascati.implementation.velocity.ClassLoaderResourceLoader
2013-10-28 15:14:25,851 - RHS of #set statement is null. Context will not be modified. index.html[line 2, column 1]
2013-10-28 15:14:25,851 - RHS of #set statement is null. Context will not be modified. index.html[line 3, column 1]
2013-10-28 15:14:25,871 - RHS of #set statement is null. Context will not be modified. index.html[line 9, column 1]
2013-10-28 15:14:25,915 - ResourceManager : found footer.html with loader org.ow2.frascati.implementation.velocity.ClassLoaderResourceLoader
2013-10-28 15:14:36,916 - ResourceManager : found index.html with loader org.ow2.frascati.implementation.velocity.ClassLoaderResourceLoader
2013-10-28 15:14:37,645 - RHS of #set statement is null. Context will not be modified. index.html[line 9, column 1]
2013-10-28 15:14:37,647 - ResourceManager : found footer.html with loader org.ow2.frascati.implementation.velocity.ClassLoaderResourceLoader
2013-10-28 15:14:42,340 - ResourceManager : found index.html with loader org.ow2.frascati.implementation.velocity.ClassLoaderResourceLoader
2013-10-28 15:14:42,661 - RHS of #set statement is null. Context will not be modified. index.html[line 9, column 1]
2013-10-28 15:14:42,663 - ResourceManager : found footer.html with loader org.ow2.frascati.implementation.velocity.ClassLoaderResourceLoader
2013-10-28 15:14:42,758 - Log4JLogChute initialized using file 'velocity.log'
2013-10-28 15:14:42,758 - Log4JLogChute initialized using file 'velocity.log'
2013-10-28 15:14:42,759 - Initializing Velocity, Calling init()...
2013-10-28 15:14:42,759 - Initializing Velocity, Calling init()...
2013-10-28 15:14:42,759 - Starting Apache Velocity v1.7 (compiled: 2010-11-19 12:14:37)
2013-10-28 15:14:42,759 - Starting Apache Velocity v1.7 (compiled: 2010-11-19 12:14:37)
2013-10-28 15:14:42,759 - Default Properties File: org/apache/velocity/runtime/defaults/velocity.properties
2013-10-28 15:14:42,759 - Default Properties File: org/apache/velocity/runtime/defaults/velocity.properties
2013-10-28 15:14:42,759 - Trying to use logger class org.apache.velocity.runtime.log.AvalonLogChute
2013-10-28 15:14:42,759 - Trying to use logger class org.apache.velocity.runtime.log.AvalonLogChute
2013-10-28 15:14:42,759 - Target log system for org.apache.velocity.runtime.log.AvalonLogChute is not available (java.lang.NoClassDefFoundError: org/apache/log/format/Formatter).  Falling back to next log system...
2013-10-28 15:14:42,759 - Target log system for org.apache.velocity.runtime.log.AvalonLogChute is not available (java.lang.NoClassDefFoundError: org/apache/log/format/Formatter).  Falling back to next log system...
2013-10-28 15:14:42,759 - Trying to use logger class org.apache.velocity.runtime.log.Log4JLogChute
2013-10-28 15:14:42,759 - Trying to use logger class org.apache.velocity.runtime.log.Log4JLogChute
2013-10-28 15:14:42,759 - Using logger class org.apache.velocity.runtime.log.Log4JLogChute
2013-10-28 15:14:42,759 - Using logger class org.apache.velocity.runtime.log.Log4JLogChute
2013-10-28 15:14:42,759 - ResourceLoader instantiated: org.ow2.frascati.implementation.velocity.ClassLoaderResourceLoader
2013-10-28 15:14:42,759 - ResourceLoader instantiated: org.ow2.frascati.implementation.velocity.ClassLoaderResourceLoader
2013-10-28 15:14:42,759 - ClasspathResourceLoader: initialization starting.
2013-10-28 15:14:42,759 - ClasspathResourceLoader: initialization starting.
2013-10-28 15:14:42,759 - ClasspathResourceLoader: initialization complete.
2013-10-28 15:14:42,759 - ClasspathResourceLoader: initialization complete.
2013-10-28 15:14:42,759 - ResourceCache: initialized (class org.apache.velocity.runtime.resource.ResourceCacheImpl) with class java.util.Collections$SynchronizedMap cache map.
2013-10-28 15:14:42,759 - ResourceCache: initialized (class org.apache.velocity.runtime.resource.ResourceCacheImpl) with class java.util.Collections$SynchronizedMap cache map.
2013-10-28 15:14:42,760 - Loaded System Directive: org.apache.velocity.runtime.directive.Stop
2013-10-28 15:14:42,760 - Loaded System Directive: org.apache.velocity.runtime.directive.Stop
2013-10-28 15:14:42,760 - Loaded System Directive: org.apache.velocity.runtime.directive.Define
2013-10-28 15:14:42,760 - Loaded System Directive: org.apache.velocity.runtime.directive.Define
2013-10-28 15:14:42,760 - Loaded System Directive: org.apache.velocity.runtime.directive.Break
2013-10-28 15:14:42,760 - Loaded System Directive: org.apache.velocity.runtime.directive.Break
2013-10-28 15:14:42,760 - Loaded System Directive: org.apache.velocity.runtime.directive.Evaluate
2013-10-28 15:14:42,760 - Loaded System Directive: org.apache.velocity.runtime.directive.Evaluate
2013-10-28 15:14:42,760 - Loaded System Directive: org.apache.velocity.runtime.directive.Literal
2013-10-28 15:14:42,760 - Loaded System Directive: org.apache.velocity.runtime.directive.Literal
2013-10-28 15:14:42,760 - Loaded System Directive: org.apache.velocity.runtime.directive.Macro
2013-10-28 15:14:42,760 - Loaded System Directive: org.apache.velocity.runtime.directive.Macro
2013-10-28 15:14:42,760 - Loaded System Directive: org.apache.velocity.runtime.directive.Parse
2013-10-28 15:14:42,760 - Loaded System Directive: org.apache.velocity.runtime.directive.Parse
2013-10-28 15:14:42,760 - Loaded System Directive: org.apache.velocity.runtime.directive.Include
2013-10-28 15:14:42,760 - Loaded System Directive: org.apache.velocity.runtime.directive.Include
2013-10-28 15:14:42,761 - Loaded System Directive: org.apache.velocity.runtime.directive.Foreach
2013-10-28 15:14:42,761 - Loaded System Directive: org.apache.velocity.runtime.directive.Foreach
2013-10-28 15:14:42,762 - Created '20' parsers.
2013-10-28 15:14:42,762 - Created '20' parsers.
2013-10-28 15:14:42,762 - Velocimacro : "velocimacro.library" is not set.  Trying default library: VM_global_library.vm
2013-10-28 15:14:42,762 - Velocimacro : "velocimacro.library" is not set.  Trying default library: VM_global_library.vm
2013-10-28 15:14:42,763 - Velocimacro : Default library not found.
2013-10-28 15:14:42,763 - Velocimacro : Default library not found.
2013-10-28 15:14:42,763 - Velocimacro : allowInline = true : VMs can be defined inline in templates
2013-10-28 15:14:42,763 - Velocimacro : allowInline = true : VMs can be defined inline in templates
2013-10-28 15:14:42,763 - Velocimacro : allowInlineToOverride = false : VMs defined inline may NOT replace previous VM definitions
2013-10-28 15:14:42,763 - Velocimacro : allowInlineToOverride = false : VMs defined inline may NOT replace previous VM definitions
2013-10-28 15:14:42,763 - Velocimacro : allowInlineLocal = false : VMs defined inline will be global in scope if allowed.
2013-10-28 15:14:42,763 - Velocimacro : allowInlineLocal = false : VMs defined inline will be global in scope if allowed.
2013-10-28 15:14:42,763 - Velocimacro : autoload off : VM system will not automatically reload global library macros
2013-10-28 15:14:42,763 - Velocimacro : autoload off : VM system will not automatically reload global library macros
2013-10-28 15:14:42,833 - ResourceManager : found index.html with loader org.ow2.frascati.implementation.velocity.ClassLoaderResourceLoader
2013-10-28 15:14:42,833 - ResourceManager : found index.html with loader org.ow2.frascati.implementation.velocity.ClassLoaderResourceLoader
2013-10-28 15:14:42,929 - ResourceManager : found header.html with loader org.ow2.frascati.implementation.velocity.ClassLoaderResourceLoader
2013-10-28 15:14:42,929 - ResourceManager : found header.html with loader org.ow2.frascati.implementation.velocity.ClassLoaderResourceLoader
2013-10-28 15:14:42,933 - RHS of #set statement is null. Context will not be modified. index.html[line 3, column 1]
2013-10-28 15:14:42,933 - RHS of #set statement is null. Context will not be modified. index.html[line 3, column 1]
2013-10-28 15:14:42,933 - RHS of #set statement is null. Context will not be modified. index.html[line 4, column 1]
2013-10-28 15:14:42,933 - RHS of #set statement is null. Context will not be modified. index.html[line 4, column 1]
2013-10-28 15:14:42,969 - ResourceManager : found manage.html with loader org.ow2.frascati.implementation.velocity.ClassLoaderResourceLoader
2013-10-28 15:14:42,969 - ResourceManager : found manage.html with loader org.ow2.frascati.implementation.velocity.ClassLoaderResourceLoader
2013-10-28 15:14:42,985 - ResourceManager : found footer.html with loader org.ow2.frascati.implementation.velocity.ClassLoaderResourceLoader
2013-10-28 15:14:42,985 - ResourceManager : found footer.html with loader org.ow2.frascati.implementation.velocity.ClassLoaderResourceLoader
2013-10-28 15:14:46,300 - ResourceManager : found index.html with loader org.ow2.frascati.implementation.velocity.ClassLoaderResourceLoader
2013-10-28 15:14:46,300 - ResourceManager : found index.html with loader org.ow2.frascati.implementation.velocity.ClassLoaderResourceLoader
2013-10-28 15:14:46,303 - ResourceManager : found header.html with loader org.ow2.frascati.implementation.velocity.ClassLoaderResourceLoader
2013-10-28 15:14:46,303 - ResourceManager : found header.html with loader org.ow2.frascati.implementation.velocity.ClassLoaderResourceLoader
2013-10-28 15:14:46,321 - ResourceManager : found create.html with loader org.ow2.frascati.implementation.velocity.ClassLoaderResourceLoader
2013-10-28 15:14:46,321 - ResourceManager : found create.html with loader org.ow2.frascati.implementation.velocity.ClassLoaderResourceLoader
2013-10-28 15:14:46,321 - ResourceManager : found footer.html with loader org.ow2.frascati.implementation.velocity.ClassLoaderResourceLoader
2013-10-28 15:14:46,321 - ResourceManager : found footer.html with loader org.ow2.frascati.implementation.velocity.ClassLoaderResourceLoader
2013-10-28 15:14:49,955 - ResourceManager : found index.html with loader org.ow2.frascati.implementation.velocity.ClassLoaderResourceLoader
2013-10-28 15:14:49,955 - ResourceManager : found index.html with loader org.ow2.frascati.implementation.velocity.ClassLoaderResourceLoader
2013-10-28 15:14:49,955 - RHS of #set statement is null. Context will not be modified. index.html[line 2, column 1]
2013-10-28 15:14:49,955 - RHS of #set statement is null. Context will not be modified. index.html[line 2, column 1]
2013-10-28 15:14:49,955 - RHS of #set statement is null. Context will not be modified. index.html[line 3, column 1]
2013-10-28 15:14:49,955 - RHS of #set statement is null. Context will not be modified. index.html[line 3, column 1]
2013-10-28 15:14:49,958 - ResourceManager : found footer.html with loader org.ow2.frascati.implementation.velocity.ClassLoaderResourceLoader
2013-10-28 15:14:49,958 - ResourceManager : found footer.html with loader org.ow2.frascati.implementation.velocity.ClassLoaderResourceLoader
2013-10-28 15:14:49,968 - ResourceManager : found index.html with loader org.ow2.frascati.implementation.velocity.ClassLoaderResourceLoader
2013-10-28 15:14:49,968 - ResourceManager : found index.html with loader org.ow2.frascati.implementation.velocity.ClassLoaderResourceLoader
2013-10-28 15:14:49,971 - ResourceManager : found header.html with loader org.ow2.frascati.implementation.velocity.ClassLoaderResourceLoader
2013-10-28 15:14:49,971 - ResourceManager : found header.html with loader org.ow2.frascati.implementation.velocity.ClassLoaderResourceLoader
2013-10-28 15:14:49,972 - RHS of #set statement is null. Context will not be modified. index.html[line 3, column 1]
2013-10-28 15:14:49,972 - RHS of #set statement is null. Context will not be modified. index.html[line 3, column 1]
2013-10-28 15:14:49,972 - RHS of #set statement is null. Context will not be modified. index.html[line 4, column 1]
2013-10-28 15:14:49,972 - RHS of #set statement is null. Context will not be modified. index.html[line 4, column 1]
2013-10-28 15:14:49,973 - ResourceManager : found manage.html with loader org.ow2.frascati.implementation.velocity.ClassLoaderResourceLoader
2013-10-28 15:14:49,973 - ResourceManager : found manage.html with loader org.ow2.frascati.implementation.velocity.ClassLoaderResourceLoader
2013-10-28 15:14:49,974 - ResourceManager : found footer.html with loader org.ow2.frascati.implementation.velocity.ClassLoaderResourceLoader
2013-10-28 15:14:49,974 - ResourceManager : found footer.html with loader org.ow2.frascati.implementation.velocity.ClassLoaderResourceLoader
2013-10-28 15:14:54,144 - ResourceManager : found index.html with loader org.ow2.frascati.implementation.velocity.ClassLoaderResourceLoader
2013-10-28 15:14:54,144 - ResourceManager : found index.html with loader org.ow2.frascati.implementation.velocity.ClassLoaderResourceLoader
2013-10-28 15:14:54,147 - ResourceManager : found header.html with loader org.ow2.frascati.implementation.velocity.ClassLoaderResourceLoader
2013-10-28 15:14:54,147 - ResourceManager : found header.html with loader org.ow2.frascati.implementation.velocity.ClassLoaderResourceLoader
2013-10-28 15:14:54,149 - ResourceManager : found create.html with loader org.ow2.frascati.implementation.velocity.ClassLoaderResourceLoader
2013-10-28 15:14:54,149 - ResourceManager : found create.html with loader org.ow2.frascati.implementation.velocity.ClassLoaderResourceLoader
2013-10-28 15:14:54,150 - ResourceManager : found footer.html with loader org.ow2.frascati.implementation.velocity.ClassLoaderResourceLoader
2013-10-28 15:14:54,150 - ResourceManager : found footer.html with loader org.ow2.frascati.implementation.velocity.ClassLoaderResourceLoader
2013-10-28 16:58:08,897 - Log4JLogChute initialized using file 'velocity.log'
2013-10-28 16:58:09,042 - Initializing Velocity, Calling init()...
2013-10-28 16:58:09,042 - Starting Apache Velocity v1.7 (compiled: 2010-11-19 12:14:37)
2013-10-28 16:58:09,042 - Default Properties File: org/apache/velocity/runtime/defaults/velocity.properties
2013-10-28 16:58:09,042 - Trying to use logger class org.apache.velocity.runtime.log.AvalonLogChute
2013-10-28 16:58:09,042 - Target log system for org.apache.velocity.runtime.log.AvalonLogChute is not available (java.lang.NoClassDefFoundError: org/apache/log/format/Formatter).  Falling back to next log system...
2013-10-28 16:58:09,042 - Trying to use logger class org.apache.velocity.runtime.log.Log4JLogChute
2013-10-28 16:58:09,042 - Using logger class org.apache.velocity.runtime.log.Log4JLogChute
2013-10-28 16:58:09,101 - ResourceLoader instantiated: org.ow2.frascati.implementation.velocity.ClassLoaderResourceLoader
2013-10-28 16:58:09,102 - ClasspathResourceLoader: initialization starting.
2013-10-28 16:58:09,102 - ClasspathResourceLoader: initialization complete.
2013-10-28 16:58:09,904 - ResourceCache: initialized (class org.apache.velocity.runtime.resource.ResourceCacheImpl) with class java.util.Collections$SynchronizedMap cache map.
2013-10-28 16:58:09,905 - Loaded System Directive: org.apache.velocity.runtime.directive.Stop
2013-10-28 16:58:09,906 - Loaded System Directive: org.apache.velocity.runtime.directive.Define
2013-10-28 16:58:09,906 - Loaded System Directive: org.apache.velocity.runtime.directive.Break
2013-10-28 16:58:09,907 - Loaded System Directive: org.apache.velocity.runtime.directive.Evaluate
2013-10-28 16:58:09,907 - Loaded System Directive: org.apache.velocity.runtime.directive.Literal
2013-10-28 16:58:09,908 - Loaded System Directive: org.apache.velocity.runtime.directive.Macro
2013-10-28 16:58:09,909 - Loaded System Directive: org.apache.velocity.runtime.directive.Parse
2013-10-28 16:58:09,910 - Loaded System Directive: org.apache.velocity.runtime.directive.Include
2013-10-28 16:58:09,911 - Loaded System Directive: org.apache.velocity.runtime.directive.Foreach
2013-10-28 16:58:10,076 - Created '20' parsers.
2013-10-28 16:58:10,083 - Velocimacro : "velocimacro.library" is not set.  Trying default library: VM_global_library.vm
2013-10-28 16:58:10,116 - Velocimacro : Default library not found.
2013-10-28 16:58:10,116 - Velocimacro : allowInline = true : VMs can be defined inline in templates
2013-10-28 16:58:10,116 - Velocimacro : allowInlineToOverride = false : VMs defined inline may NOT replace previous VM definitions
2013-10-28 16:58:10,116 - Velocimacro : allowInlineLocal = false : VMs defined inline will be global in scope if allowed.
2013-10-28 16:58:10,116 - Velocimacro : autoload off : VM system will not automatically reload global library macros
2013-10-28 16:58:10,279 - ResourceManager : found index.html with loader org.ow2.frascati.implementation.velocity.ClassLoaderResourceLoader
2013-10-28 16:58:10,540 - RHS of #set statement is null. Context will not be modified. index.html[line 2, column 1]
2013-10-28 16:58:10,541 - RHS of #set statement is null. Context will not be modified. index.html[line 3, column 1]
2013-10-28 16:58:10,796 - RHS of #set statement is null. Context will not be modified. index.html[line 12, column 10]
2013-10-28 16:58:10,846 - ResourceManager : found footer.html with loader org.ow2.frascati.implementation.velocity.ClassLoaderResourceLoader
2013-10-28 16:58:24,338 - ResourceManager : found index.html with loader org.ow2.frascati.implementation.velocity.ClassLoaderResourceLoader
2013-10-28 16:58:25,729 - RHS of #set statement is null. Context will not be modified. index.html[line 12, column 10]
2013-10-28 16:58:25,730 - ResourceManager : found footer.html with loader org.ow2.frascati.implementation.velocity.ClassLoaderResourceLoader
2013-10-28 16:58:25,856 - Log4JLogChute initialized using file 'velocity.log'
2013-10-28 16:58:25,856 - Log4JLogChute initialized using file 'velocity.log'
2013-10-28 16:58:25,856 - Initializing Velocity, Calling init()...
2013-10-28 16:58:25,856 - Initializing Velocity, Calling init()...
2013-10-28 16:58:25,856 - Starting Apache Velocity v1.7 (compiled: 2010-11-19 12:14:37)
2013-10-28 16:58:25,856 - Starting Apache Velocity v1.7 (compiled: 2010-11-19 12:14:37)
2013-10-28 16:58:25,856 - Default Properties File: org/apache/velocity/runtime/defaults/velocity.properties
2013-10-28 16:58:25,856 - Default Properties File: org/apache/velocity/runtime/defaults/velocity.properties
2013-10-28 16:58:25,856 - Trying to use logger class org.apache.velocity.runtime.log.AvalonLogChute
2013-10-28 16:58:25,856 - Trying to use logger class org.apache.velocity.runtime.log.AvalonLogChute
2013-10-28 16:58:25,856 - Target log system for org.apache.velocity.runtime.log.AvalonLogChute is not available (java.lang.NoClassDefFoundError: org/apache/log/format/Formatter).  Falling back to next log system...
2013-10-28 16:58:25,856 - Target log system for org.apache.velocity.runtime.log.AvalonLogChute is not available (java.lang.NoClassDefFoundError: org/apache/log/format/Formatter).  Falling back to next log system...
2013-10-28 16:58:25,856 - Trying to use logger class org.apache.velocity.runtime.log.Log4JLogChute
2013-10-28 16:58:25,856 - Trying to use logger class org.apache.velocity.runtime.log.Log4JLogChute
2013-10-28 16:58:25,856 - Using logger class org.apache.velocity.runtime.log.Log4JLogChute
2013-10-28 16:58:25,856 - Using logger class org.apache.velocity.runtime.log.Log4JLogChute
2013-10-28 16:58:25,856 - ResourceLoader instantiated: org.ow2.frascati.implementation.velocity.ClassLoaderResourceLoader
2013-10-28 16:58:25,856 - ResourceLoader instantiated: org.ow2.frascati.implementation.velocity.ClassLoaderResourceLoader
2013-10-28 16:58:25,856 - ClasspathResourceLoader: initialization starting.
2013-10-28 16:58:25,856 - ClasspathResourceLoader: initialization starting.
2013-10-28 16:58:25,856 - ClasspathResourceLoader: initialization complete.
2013-10-28 16:58:25,856 - ClasspathResourceLoader: initialization complete.
2013-10-28 16:58:25,857 - ResourceCache: initialized (class org.apache.velocity.runtime.resource.ResourceCacheImpl) with class java.util.Collections$SynchronizedMap cache map.
2013-10-28 16:58:25,857 - ResourceCache: initialized (class org.apache.velocity.runtime.resource.ResourceCacheImpl) with class java.util.Collections$SynchronizedMap cache map.
2013-10-28 16:58:25,857 - Loaded System Directive: org.apache.velocity.runtime.directive.Stop
2013-10-28 16:58:25,857 - Loaded System Directive: org.apache.velocity.runtime.directive.Stop
2013-10-28 16:58:25,857 - Loaded System Directive: org.apache.velocity.runtime.directive.Define
2013-10-28 16:58:25,857 - Loaded System Directive: org.apache.velocity.runtime.directive.Define
2013-10-28 16:58:25,857 - Loaded System Directive: org.apache.velocity.runtime.directive.Break
2013-10-28 16:58:25,857 - Loaded System Directive: org.apache.velocity.runtime.directive.Break
2013-10-28 16:58:25,857 - Loaded System Directive: org.apache.velocity.runtime.directive.Evaluate
2013-10-28 16:58:25,857 - Loaded System Directive: org.apache.velocity.runtime.directive.Evaluate
2013-10-28 16:58:25,857 - Loaded System Directive: org.apache.velocity.runtime.directive.Literal
2013-10-28 16:58:25,857 - Loaded System Directive: org.apache.velocity.runtime.directive.Literal
2013-10-28 16:58:25,857 - Loaded System Directive: org.apache.velocity.runtime.directive.Macro
2013-10-28 16:58:25,857 - Loaded System Directive: org.apache.velocity.runtime.directive.Macro
2013-10-28 16:58:25,857 - Loaded System Directive: org.apache.velocity.runtime.directive.Parse
2013-10-28 16:58:25,857 - Loaded System Directive: org.apache.velocity.runtime.directive.Parse
2013-10-28 16:58:25,857 - Loaded System Directive: org.apache.velocity.runtime.directive.Include
2013-10-28 16:58:25,857 - Loaded System Directive: org.apache.velocity.runtime.directive.Include
2013-10-28 16:58:25,857 - Loaded System Directive: org.apache.velocity.runtime.directive.Foreach
2013-10-28 16:58:25,857 - Loaded System Directive: org.apache.velocity.runtime.directive.Foreach
2013-10-28 16:58:25,858 - Created '20' parsers.
2013-10-28 16:58:25,858 - Created '20' parsers.
2013-10-28 16:58:25,858 - Velocimacro : "velocimacro.library" is not set.  Trying default library: VM_global_library.vm
2013-10-28 16:58:25,858 - Velocimacro : "velocimacro.library" is not set.  Trying default library: VM_global_library.vm
2013-10-28 16:58:25,859 - Velocimacro : Default library not found.
2013-10-28 16:58:25,859 - Velocimacro : Default library not found.
2013-10-28 16:58:25,859 - Velocimacro : allowInline = true : VMs can be defined inline in templates
2013-10-28 16:58:25,859 - Velocimacro : allowInline = true : VMs can be defined inline in templates
2013-10-28 16:58:25,859 - Velocimacro : allowInlineToOverride = false : VMs defined inline may NOT replace previous VM definitions
2013-10-28 16:58:25,859 - Velocimacro : allowInlineToOverride = false : VMs defined inline may NOT replace previous VM definitions
2013-10-28 16:58:25,859 - Velocimacro : allowInlineLocal = false : VMs defined inline will be global in scope if allowed.
2013-10-28 16:58:25,859 - Velocimacro : allowInlineLocal = false : VMs defined inline will be global in scope if allowed.
2013-10-28 16:58:25,859 - Velocimacro : autoload off : VM system will not automatically reload global library macros
2013-10-28 16:58:25,859 - Velocimacro : autoload off : VM system will not automatically reload global library macros
2013-10-28 16:58:25,908 - ResourceManager : found index.html with loader org.ow2.frascati.implementation.velocity.ClassLoaderResourceLoader
2013-10-28 16:58:25,908 - ResourceManager : found index.html with loader org.ow2.frascati.implementation.velocity.ClassLoaderResourceLoader
2013-10-28 16:58:25,979 - ResourceManager : found header.html with loader org.ow2.frascati.implementation.velocity.ClassLoaderResourceLoader
2013-10-28 16:58:25,979 - ResourceManager : found header.html with loader org.ow2.frascati.implementation.velocity.ClassLoaderResourceLoader
2013-10-28 16:58:25,981 - RHS of #set statement is null. Context will not be modified. index.html[line 3, column 1]
2013-10-28 16:58:25,981 - RHS of #set statement is null. Context will not be modified. index.html[line 3, column 1]
2013-10-28 16:58:25,981 - RHS of #set statement is null. Context will not be modified. index.html[line 4, column 1]
2013-10-28 16:58:25,981 - RHS of #set statement is null. Context will not be modified. index.html[line 4, column 1]
2013-10-28 16:58:26,029 - ResourceManager : found manage.html with loader org.ow2.frascati.implementation.velocity.ClassLoaderResourceLoader
2013-10-28 16:58:26,029 - ResourceManager : found manage.html with loader org.ow2.frascati.implementation.velocity.ClassLoaderResourceLoader
2013-10-28 16:58:26,076 - ResourceManager : found footer.html with loader org.ow2.frascati.implementation.velocity.ClassLoaderResourceLoader
2013-10-28 16:58:26,076 - ResourceManager : found footer.html with loader org.ow2.frascati.implementation.velocity.ClassLoaderResourceLoader
2013-10-28 16:58:31,551 - ResourceManager : found index.html with loader org.ow2.frascati.implementation.velocity.ClassLoaderResourceLoader
2013-10-28 16:58:31,551 - ResourceManager : found index.html with loader org.ow2.frascati.implementation.velocity.ClassLoaderResourceLoader
2013-10-28 16:58:31,554 - ResourceManager : found header.html with loader org.ow2.frascati.implementation.velocity.ClassLoaderResourceLoader
2013-10-28 16:58:31,554 - ResourceManager : found header.html with loader org.ow2.frascati.implementation.velocity.ClassLoaderResourceLoader
2013-10-28 16:58:31,566 - ResourceManager : found create.html with loader org.ow2.frascati.implementation.velocity.ClassLoaderResourceLoader
2013-10-28 16:58:31,566 - ResourceManager : found create.html with loader org.ow2.frascati.implementation.velocity.ClassLoaderResourceLoader
2013-10-28 16:58:31,567 - ResourceManager : found footer.html with loader org.ow2.frascati.implementation.velocity.ClassLoaderResourceLoader
2013-10-28 16:58:31,567 - ResourceManager : found footer.html with loader org.ow2.frascati.implementation.velocity.ClassLoaderResourceLoader
2013-10-28 17:00:57,756 - ResourceManager : found index.html with loader org.ow2.frascati.implementation.velocity.ClassLoaderResourceLoader
2013-10-28 17:00:57,756 - ResourceManager : found index.html with loader org.ow2.frascati.implementation.velocity.ClassLoaderResourceLoader
2013-10-28 17:00:57,818 - ResourceManager : found header.html with loader org.ow2.frascati.implementation.velocity.ClassLoaderResourceLoader
2013-10-28 17:00:57,818 - ResourceManager : found header.html with loader org.ow2.frascati.implementation.velocity.ClassLoaderResourceLoader
2013-10-28 17:00:57,824 - ResourceManager : found create.html with loader org.ow2.frascati.implementation.velocity.ClassLoaderResourceLoader
2013-10-28 17:00:57,824 - ResourceManager : found create.html with loader org.ow2.frascati.implementation.velocity.ClassLoaderResourceLoader
2013-10-28 17:00:57,826 - ResourceManager : found footer.html with loader org.ow2.frascati.implementation.velocity.ClassLoaderResourceLoader
2013-10-28 17:00:57,826 - ResourceManager : found footer.html with loader org.ow2.frascati.implementation.velocity.ClassLoaderResourceLoader
2013-10-28 17:02:20,118 - ResourceManager : found index.html with loader org.ow2.frascati.implementation.velocity.ClassLoaderResourceLoader
2013-10-28 17:02:20,118 - ResourceManager : found index.html with loader org.ow2.frascati.implementation.velocity.ClassLoaderResourceLoader
2013-10-28 17:02:20,156 - ResourceManager : found header.html with loader org.ow2.frascati.implementation.velocity.ClassLoaderResourceLoader
2013-10-28 17:02:20,156 - ResourceManager : found header.html with loader org.ow2.frascati.implementation.velocity.ClassLoaderResourceLoader
2013-10-28 17:02:20,163 - ResourceManager : found create.html with loader org.ow2.frascati.implementation.velocity.ClassLoaderResourceLoader
2013-10-28 17:02:20,163 - ResourceManager : found create.html with loader org.ow2.frascati.implementation.velocity.ClassLoaderResourceLoader
2013-10-28 17:02:20,165 - ResourceManager : found footer.html with loader org.ow2.frascati.implementation.velocity.ClassLoaderResourceLoader
2013-10-28 17:02:20,165 - ResourceManager : found footer.html with loader org.ow2.frascati.implementation.velocity.ClassLoaderResourceLoader
2013-10-28 17:02:33,529 - ResourceManager : found index.html with loader org.ow2.frascati.implementation.velocity.ClassLoaderResourceLoader
2013-10-28 17:02:33,529 - ResourceManager : found index.html with loader org.ow2.frascati.implementation.velocity.ClassLoaderResourceLoader
2013-10-28 17:02:33,531 - ResourceManager : found header.html with loader org.ow2.frascati.implementation.velocity.ClassLoaderResourceLoader
2013-10-28 17:02:33,531 - ResourceManager : found header.html with loader org.ow2.frascati.implementation.velocity.ClassLoaderResourceLoader
2013-10-28 17:02:33,534 - ResourceManager : found create.html with loader org.ow2.frascati.implementation.velocity.ClassLoaderResourceLoader
2013-10-28 17:02:33,534 - ResourceManager : found create.html with loader org.ow2.frascati.implementation.velocity.ClassLoaderResourceLoader
2013-10-28 17:02:33,534 - ResourceManager : found footer.html with loader org.ow2.frascati.implementation.velocity.ClassLoaderResourceLoader
2013-10-28 17:02:33,534 - ResourceManager : found footer.html with loader org.ow2.frascati.implementation.velocity.ClassLoaderResourceLoader
2013-10-28 17:02:54,328 - ResourceManager : found index.html with loader org.ow2.frascati.implementation.velocity.ClassLoaderResourceLoader
2013-10-28 17:02:54,328 - ResourceManager : found index.html with loader org.ow2.frascati.implementation.velocity.ClassLoaderResourceLoader
2013-10-28 17:02:54,330 - ResourceManager : found header.html with loader org.ow2.frascati.implementation.velocity.ClassLoaderResourceLoader
2013-10-28 17:02:54,330 - ResourceManager : found header.html with loader org.ow2.frascati.implementation.velocity.ClassLoaderResourceLoader
2013-10-28 17:02:54,333 - ResourceManager : found create.html with loader org.ow2.frascati.implementation.velocity.ClassLoaderResourceLoader
2013-10-28 17:02:54,333 - ResourceManager : found create.html with loader org.ow2.frascati.implementation.velocity.ClassLoaderResourceLoader
2013-10-28 17:02:54,334 - ResourceManager : found footer.html with loader org.ow2.frascati.implementation.velocity.ClassLoaderResourceLoader
2013-10-28 17:02:54,334 - ResourceManager : found footer.html with loader org.ow2.frascati.implementation.velocity.ClassLoaderResourceLoader
2013-10-28 17:03:54,733 - ResourceManager : found index.html with loader org.ow2.frascati.implementation.velocity.ClassLoaderResourceLoader
2013-10-28 17:03:54,733 - ResourceManager : found index.html with loader org.ow2.frascati.implementation.velocity.ClassLoaderResourceLoader
2013-10-28 17:03:54,736 - ResourceManager : found header.html with loader org.ow2.frascati.implementation.velocity.ClassLoaderResourceLoader
2013-10-28 17:03:54,736 - ResourceManager : found header.html with loader org.ow2.frascati.implementation.velocity.ClassLoaderResourceLoader
2013-10-28 17:03:54,738 - ResourceManager : found create.html with loader org.ow2.frascati.implementation.velocity.ClassLoaderResourceLoader
2013-10-28 17:03:54,738 - ResourceManager : found create.html with loader org.ow2.frascati.implementation.velocity.ClassLoaderResourceLoader
2013-10-28 17:03:54,739 - ResourceManager : found footer.html with loader org.ow2.frascati.implementation.velocity.ClassLoaderResourceLoader
2013-10-28 17:03:54,739 - ResourceManager : found footer.html with loader org.ow2.frascati.implementation.velocity.ClassLoaderResourceLoader
2013-10-28 17:04:11,748 - ResourceManager : found index.html with loader org.ow2.frascati.implementation.velocity.ClassLoaderResourceLoader
2013-10-28 17:04:11,748 - ResourceManager : found index.html with loader org.ow2.frascati.implementation.velocity.ClassLoaderResourceLoader
2013-10-28 17:04:11,751 - ResourceManager : found header.html with loader org.ow2.frascati.implementation.velocity.ClassLoaderResourceLoader
2013-10-28 17:04:11,751 - ResourceManager : found header.html with loader org.ow2.frascati.implementation.velocity.ClassLoaderResourceLoader
2013-10-28 17:04:11,754 - ResourceManager : found create.html with loader org.ow2.frascati.implementation.velocity.ClassLoaderResourceLoader
2013-10-28 17:04:11,754 - ResourceManager : found create.html with loader org.ow2.frascati.implementation.velocity.ClassLoaderResourceLoader
2013-10-28 17:04:11,754 - ResourceManager : found footer.html with loader org.ow2.frascati.implementation.velocity.ClassLoaderResourceLoader
2013-10-28 17:04:11,754 - ResourceManager : found footer.html with loader org.ow2.frascati.implementation.velocity.ClassLoaderResourceLoader
2013-10-28 17:04:52,601 - ResourceManager : found index.html with loader org.ow2.frascati.implementation.velocity.ClassLoaderResourceLoader
2013-10-28 17:04:52,601 - ResourceManager : found index.html with loader org.ow2.frascati.implementation.velocity.ClassLoaderResourceLoader
2013-10-28 17:04:52,603 - ResourceManager : found header.html with loader org.ow2.frascati.implementation.velocity.ClassLoaderResourceLoader
2013-10-28 17:04:52,603 - ResourceManager : found header.html with loader org.ow2.frascati.implementation.velocity.ClassLoaderResourceLoader
2013-10-28 17:04:52,612 - ResourceManager : found create.html with loader org.ow2.frascati.implementation.velocity.ClassLoaderResourceLoader
2013-10-28 17:04:52,612 - ResourceManager : found create.html with loader org.ow2.frascati.implementation.velocity.ClassLoaderResourceLoader
2013-10-28 17:04:52,613 - ResourceManager : found footer.html with loader org.ow2.frascati.implementation.velocity.ClassLoaderResourceLoader
2013-10-28 17:04:52,613 - ResourceManager : found footer.html with loader org.ow2.frascati.implementation.velocity.ClassLoaderResourceLoader
2013-10-28 17:05:28,597 - ResourceManager : found index.html with loader org.ow2.frascati.implementation.velocity.ClassLoaderResourceLoader
2013-10-28 17:05:28,597 - ResourceManager : found index.html with loader org.ow2.frascati.implementation.velocity.ClassLoaderResourceLoader
2013-10-28 17:05:28,600 - ResourceManager : found header.html with loader org.ow2.frascati.implementation.velocity.ClassLoaderResourceLoader
2013-10-28 17:05:28,600 - ResourceManager : found header.html with loader org.ow2.frascati.implementation.velocity.ClassLoaderResourceLoader
2013-10-28 17:05:28,602 - RHS of #set statement is null. Context will not be modified. index.html[line 3, column 1]
2013-10-28 17:05:28,602 - RHS of #set statement is null. Context will not be modified. index.html[line 3, column 1]
2013-10-28 17:05:28,602 - RHS of #set statement is null. Context will not be modified. index.html[line 4, column 1]
2013-10-28 17:05:28,602 - RHS of #set statement is null. Context will not be modified. index.html[line 4, column 1]
2013-10-28 17:05:28,617 - ResourceManager : found manage.html with loader org.ow2.frascati.implementation.velocity.ClassLoaderResourceLoader
2013-10-28 17:05:28,617 - ResourceManager : found manage.html with loader org.ow2.frascati.implementation.velocity.ClassLoaderResourceLoader
2013-10-28 17:05:28,617 - ResourceManager : found footer.html with loader org.ow2.frascati.implementation.velocity.ClassLoaderResourceLoader
2013-10-28 17:05:28,617 - ResourceManager : found footer.html with loader org.ow2.frascati.implementation.velocity.ClassLoaderResourceLoader
2013-10-28 17:06:06,972 - Log4JLogChute initialized using file 'velocity.log'
2013-10-28 17:06:06,972 - Log4JLogChute initialized using file 'velocity.log'
2013-10-28 17:06:06,972 - Log4JLogChute initialized using file 'velocity.log'
2013-10-28 17:06:06,973 - Initializing Velocity, Calling init()...
2013-10-28 17:06:06,973 - Initializing Velocity, Calling init()...
2013-10-28 17:06:06,973 - Initializing Velocity, Calling init()...
2013-10-28 17:06:06,973 - Starting Apache Velocity v1.7 (compiled: 2010-11-19 12:14:37)
2013-10-28 17:06:06,973 - Starting Apache Velocity v1.7 (compiled: 2010-11-19 12:14:37)
2013-10-28 17:06:06,973 - Starting Apache Velocity v1.7 (compiled: 2010-11-19 12:14:37)
2013-10-28 17:06:06,973 - Default Properties File: org/apache/velocity/runtime/defaults/velocity.properties
2013-10-28 17:06:06,973 - Default Properties File: org/apache/velocity/runtime/defaults/velocity.properties
2013-10-28 17:06:06,973 - Default Properties File: org/apache/velocity/runtime/defaults/velocity.properties
2013-10-28 17:06:06,973 - Trying to use logger class org.apache.velocity.runtime.log.AvalonLogChute
2013-10-28 17:06:06,973 - Trying to use logger class org.apache.velocity.runtime.log.AvalonLogChute
2013-10-28 17:06:06,973 - Trying to use logger class org.apache.velocity.runtime.log.AvalonLogChute
2013-10-28 17:06:06,973 - Target log system for org.apache.velocity.runtime.log.AvalonLogChute is not available (java.lang.NoClassDefFoundError: org/apache/log/format/Formatter).  Falling back to next log system...
2013-10-28 17:06:06,973 - Target log system for org.apache.velocity.runtime.log.AvalonLogChute is not available (java.lang.NoClassDefFoundError: org/apache/log/format/Formatter).  Falling back to next log system...
2013-10-28 17:06:06,973 - Target log system for org.apache.velocity.runtime.log.AvalonLogChute is not available (java.lang.NoClassDefFoundError: org/apache/log/format/Formatter).  Falling back to next log system...
2013-10-28 17:06:06,973 - Trying to use logger class org.apache.velocity.runtime.log.Log4JLogChute
2013-10-28 17:06:06,973 - Trying to use logger class org.apache.velocity.runtime.log.Log4JLogChute
2013-10-28 17:06:06,973 - Trying to use logger class org.apache.velocity.runtime.log.Log4JLogChute
2013-10-28 17:06:06,973 - Using logger class org.apache.velocity.runtime.log.Log4JLogChute
2013-10-28 17:06:06,973 - Using logger class org.apache.velocity.runtime.log.Log4JLogChute
2013-10-28 17:06:06,973 - Using logger class org.apache.velocity.runtime.log.Log4JLogChute
2013-10-28 17:06:06,973 - ResourceLoader instantiated: org.ow2.frascati.implementation.velocity.ClassLoaderResourceLoader
2013-10-28 17:06:06,973 - ResourceLoader instantiated: org.ow2.frascati.implementation.velocity.ClassLoaderResourceLoader
2013-10-28 17:06:06,973 - ResourceLoader instantiated: org.ow2.frascati.implementation.velocity.ClassLoaderResourceLoader
2013-10-28 17:06:06,973 - ClasspathResourceLoader: initialization starting.
2013-10-28 17:06:06,973 - ClasspathResourceLoader: initialization starting.
2013-10-28 17:06:06,973 - ClasspathResourceLoader: initialization starting.
2013-10-28 17:06:06,973 - ClasspathResourceLoader: initialization complete.
2013-10-28 17:06:06,973 - ClasspathResourceLoader: initialization complete.
2013-10-28 17:06:06,973 - ClasspathResourceLoader: initialization complete.
2013-10-28 17:06:06,973 - ResourceCache: initialized (class org.apache.velocity.runtime.resource.ResourceCacheImpl) with class java.util.Collections$SynchronizedMap cache map.
2013-10-28 17:06:06,973 - ResourceCache: initialized (class org.apache.velocity.runtime.resource.ResourceCacheImpl) with class java.util.Collections$SynchronizedMap cache map.
2013-10-28 17:06:06,973 - ResourceCache: initialized (class org.apache.velocity.runtime.resource.ResourceCacheImpl) with class java.util.Collections$SynchronizedMap cache map.
2013-10-28 17:06:06,974 - Loaded System Directive: org.apache.velocity.runtime.directive.Stop
2013-10-28 17:06:06,974 - Loaded System Directive: org.apache.velocity.runtime.directive.Stop
2013-10-28 17:06:06,974 - Loaded System Directive: org.apache.velocity.runtime.directive.Stop
2013-10-28 17:06:06,974 - Loaded System Directive: org.apache.velocity.runtime.directive.Define
2013-10-28 17:06:06,974 - Loaded System Directive: org.apache.velocity.runtime.directive.Define
2013-10-28 17:06:06,974 - Loaded System Directive: org.apache.velocity.runtime.directive.Define
2013-10-28 17:06:06,975 - Loaded System Directive: org.apache.velocity.runtime.directive.Break
2013-10-28 17:06:06,975 - Loaded System Directive: org.apache.velocity.runtime.directive.Break
2013-10-28 17:06:06,975 - Loaded System Directive: org.apache.velocity.runtime.directive.Break
2013-10-28 17:06:06,975 - Loaded System Directive: org.apache.velocity.runtime.directive.Evaluate
2013-10-28 17:06:06,975 - Loaded System Directive: org.apache.velocity.runtime.directive.Evaluate
2013-10-28 17:06:06,975 - Loaded System Directive: org.apache.velocity.runtime.directive.Evaluate
2013-10-28 17:06:06,975 - Loaded System Directive: org.apache.velocity.runtime.directive.Literal
2013-10-28 17:06:06,975 - Loaded System Directive: org.apache.velocity.runtime.directive.Literal
2013-10-28 17:06:06,975 - Loaded System Directive: org.apache.velocity.runtime.directive.Literal
2013-10-28 17:06:06,975 - Loaded System Directive: org.apache.velocity.runtime.directive.Macro
2013-10-28 17:06:06,975 - Loaded System Directive: org.apache.velocity.runtime.directive.Macro
2013-10-28 17:06:06,975 - Loaded System Directive: org.apache.velocity.runtime.directive.Macro
2013-10-28 17:06:06,975 - Loaded System Directive: org.apache.velocity.runtime.directive.Parse
2013-10-28 17:06:06,975 - Loaded System Directive: org.apache.velocity.runtime.directive.Parse
2013-10-28 17:06:06,975 - Loaded System Directive: org.apache.velocity.runtime.directive.Parse
2013-10-28 17:06:06,975 - Loaded System Directive: org.apache.velocity.runtime.directive.Include
2013-10-28 17:06:06,975 - Loaded System Directive: org.apache.velocity.runtime.directive.Include
2013-10-28 17:06:06,975 - Loaded System Directive: org.apache.velocity.runtime.directive.Include
2013-10-28 17:06:06,975 - Loaded System Directive: org.apache.velocity.runtime.directive.Foreach
2013-10-28 17:06:06,975 - Loaded System Directive: org.apache.velocity.runtime.directive.Foreach
2013-10-28 17:06:06,975 - Loaded System Directive: org.apache.velocity.runtime.directive.Foreach
2013-10-28 17:06:06,977 - Created '20' parsers.
2013-10-28 17:06:06,977 - Created '20' parsers.
2013-10-28 17:06:06,977 - Created '20' parsers.
2013-10-28 17:06:06,977 - Velocimacro : "velocimacro.library" is not set.  Trying default library: VM_global_library.vm
2013-10-28 17:06:06,977 - Velocimacro : "velocimacro.library" is not set.  Trying default library: VM_global_library.vm
2013-10-28 17:06:06,977 - Velocimacro : "velocimacro.library" is not set.  Trying default library: VM_global_library.vm
2013-10-28 17:06:06,980 - Velocimacro : Default library not found.
2013-10-28 17:06:06,980 - Velocimacro : Default library not found.
2013-10-28 17:06:06,980 - Velocimacro : Default library not found.
2013-10-28 17:06:06,980 - Velocimacro : allowInline = true : VMs can be defined inline in templates
2013-10-28 17:06:06,980 - Velocimacro : allowInline = true : VMs can be defined inline in templates
2013-10-28 17:06:06,980 - Velocimacro : allowInline = true : VMs can be defined inline in templates
2013-10-28 17:06:06,980 - Velocimacro : allowInlineToOverride = false : VMs defined inline may NOT replace previous VM definitions
2013-10-28 17:06:06,980 - Velocimacro : allowInlineToOverride = false : VMs defined inline may NOT replace previous VM definitions
2013-10-28 17:06:06,980 - Velocimacro : allowInlineToOverride = false : VMs defined inline may NOT replace previous VM definitions
2013-10-28 17:06:06,981 - Velocimacro : allowInlineLocal = false : VMs defined inline will be global in scope if allowed.
2013-10-28 17:06:06,981 - Velocimacro : allowInlineLocal = false : VMs defined inline will be global in scope if allowed.
2013-10-28 17:06:06,981 - Velocimacro : allowInlineLocal = false : VMs defined inline will be global in scope if allowed.
2013-10-28 17:06:06,981 - Velocimacro : autoload off : VM system will not automatically reload global library macros
2013-10-28 17:06:06,981 - Velocimacro : autoload off : VM system will not automatically reload global library macros
2013-10-28 17:06:06,981 - Velocimacro : autoload off : VM system will not automatically reload global library macros
2013-10-28 17:06:07,073 - ResourceManager : found index/index.html with loader org.ow2.frascati.implementation.velocity.ClassLoaderResourceLoader
2013-10-28 17:06:07,073 - ResourceManager : found index/index.html with loader org.ow2.frascati.implementation.velocity.ClassLoaderResourceLoader
2013-10-28 17:06:07,073 - ResourceManager : found index/index.html with loader org.ow2.frascati.implementation.velocity.ClassLoaderResourceLoader
2013-10-28 17:06:07,119 - ResourceManager : found header.html with loader org.ow2.frascati.implementation.velocity.ClassLoaderResourceLoader
2013-10-28 17:06:07,119 - ResourceManager : found header.html with loader org.ow2.frascati.implementation.velocity.ClassLoaderResourceLoader
2013-10-28 17:06:07,119 - ResourceManager : found header.html with loader org.ow2.frascati.implementation.velocity.ClassLoaderResourceLoader
2013-10-28 17:06:07,174 - ResourceManager : found experimentMenu.html with loader org.ow2.frascati.implementation.velocity.ClassLoaderResourceLoader
2013-10-28 17:06:07,174 - ResourceManager : found experimentMenu.html with loader org.ow2.frascati.implementation.velocity.ClassLoaderResourceLoader
2013-10-28 17:06:07,174 - ResourceManager : found experimentMenu.html with loader org.ow2.frascati.implementation.velocity.ClassLoaderResourceLoader
2013-10-28 17:06:07,175 - RHS of #set statement is null. Context will not be modified. experimentMenu.html[line 4, column 13]
2013-10-28 17:06:07,175 - RHS of #set statement is null. Context will not be modified. experimentMenu.html[line 4, column 13]
2013-10-28 17:06:07,175 - RHS of #set statement is null. Context will not be modified. experimentMenu.html[line 4, column 13]
2013-10-28 17:06:07,244 - ResourceManager : found footer.html with loader org.ow2.frascati.implementation.velocity.ClassLoaderResourceLoader
2013-10-28 17:06:07,244 - ResourceManager : found footer.html with loader org.ow2.frascati.implementation.velocity.ClassLoaderResourceLoader
2013-10-28 17:06:07,244 - ResourceManager : found footer.html with loader org.ow2.frascati.implementation.velocity.ClassLoaderResourceLoader
2013-10-28 17:06:10,226 - ResourceManager : found service/service.html with loader org.ow2.frascati.implementation.velocity.ClassLoaderResourceLoader
2013-10-28 17:06:10,226 - ResourceManager : found service/service.html with loader org.ow2.frascati.implementation.velocity.ClassLoaderResourceLoader
2013-10-28 17:06:10,226 - ResourceManager : found service/service.html with loader org.ow2.frascati.implementation.velocity.ClassLoaderResourceLoader
2013-10-28 17:06:10,228 - ResourceManager : found header.html with loader org.ow2.frascati.implementation.velocity.ClassLoaderResourceLoader
2013-10-28 17:06:10,228 - ResourceManager : found header.html with loader org.ow2.frascati.implementation.velocity.ClassLoaderResourceLoader
2013-10-28 17:06:10,228 - ResourceManager : found header.html with loader org.ow2.frascati.implementation.velocity.ClassLoaderResourceLoader
2013-10-28 17:06:10,234 - ResourceManager : found experimentMenu.html with loader org.ow2.frascati.implementation.velocity.ClassLoaderResourceLoader
2013-10-28 17:06:10,234 - ResourceManager : found experimentMenu.html with loader org.ow2.frascati.implementation.velocity.ClassLoaderResourceLoader
2013-10-28 17:06:10,234 - ResourceManager : found experimentMenu.html with loader org.ow2.frascati.implementation.velocity.ClassLoaderResourceLoader
2013-10-28 17:06:10,290 - ResourceManager : found footer.html with loader org.ow2.frascati.implementation.velocity.ClassLoaderResourceLoader
2013-10-28 17:06:10,290 - ResourceManager : found footer.html with loader org.ow2.frascati.implementation.velocity.ClassLoaderResourceLoader
2013-10-28 17:06:10,290 - ResourceManager : found footer.html with loader org.ow2.frascati.implementation.velocity.ClassLoaderResourceLoader
2013-10-28 17:06:12,974 - ResourceManager : found configuration/configuration.html with loader org.ow2.frascati.implementation.velocity.ClassLoaderResourceLoader
2013-10-28 17:06:12,974 - ResourceManager : found configuration/configuration.html with loader org.ow2.frascati.implementation.velocity.ClassLoaderResourceLoader
2013-10-28 17:06:12,974 - ResourceManager : found configuration/configuration.html with loader org.ow2.frascati.implementation.velocity.ClassLoaderResourceLoader
2013-10-28 17:06:12,978 - ResourceManager : found header.html with loader org.ow2.frascati.implementation.velocity.ClassLoaderResourceLoader
2013-10-28 17:06:12,978 - ResourceManager : found header.html with loader org.ow2.frascati.implementation.velocity.ClassLoaderResourceLoader
2013-10-28 17:06:12,978 - ResourceManager : found header.html with loader org.ow2.frascati.implementation.velocity.ClassLoaderResourceLoader
2013-10-28 17:06:12,983 - ResourceManager : found experimentMenu.html with loader org.ow2.frascati.implementation.velocity.ClassLoaderResourceLoader
2013-10-28 17:06:12,983 - ResourceManager : found experimentMenu.html with loader org.ow2.frascati.implementation.velocity.ClassLoaderResourceLoader
2013-10-28 17:06:12,983 - ResourceManager : found experimentMenu.html with loader org.ow2.frascati.implementation.velocity.ClassLoaderResourceLoader
2013-10-28 17:06:12,985 - ResourceManager : found footer.html with loader org.ow2.frascati.implementation.velocity.ClassLoaderResourceLoader
2013-10-28 17:06:12,985 - ResourceManager : found footer.html with loader org.ow2.frascati.implementation.velocity.ClassLoaderResourceLoader
2013-10-28 17:06:12,985 - ResourceManager : found footer.html with loader org.ow2.frascati.implementation.velocity.ClassLoaderResourceLoader
2013-10-28 17:06:32,777 - ResourceManager : found logout.html with loader org.ow2.frascati.implementation.velocity.ClassLoaderResourceLoader
2013-10-28 17:06:32,777 - ResourceManager : found logout.html with loader org.ow2.frascati.implementation.velocity.ClassLoaderResourceLoader
2013-10-28 17:06:32,777 - ResourceManager : found logout.html with loader org.ow2.frascati.implementation.velocity.ClassLoaderResourceLoader
2013-10-28 17:06:32,802 - ResourceManager : found index.html with loader org.ow2.frascati.implementation.velocity.ClassLoaderResourceLoader
2013-10-28 17:06:32,802 - ResourceManager : found index.html with loader org.ow2.frascati.implementation.velocity.ClassLoaderResourceLoader
2013-10-28 17:06:32,802 - ResourceManager : found index.html with loader org.ow2.frascati.implementation.velocity.ClassLoaderResourceLoader
2013-10-28 17:06:32,802 - RHS of #set statement is null. Context will not be modified. index.html[line 2, column 1]
2013-10-28 17:06:32,802 - RHS of #set statement is null. Context will not be modified. index.html[line 2, column 1]
2013-10-28 17:06:32,802 - RHS of #set statement is null. Context will not be modified. index.html[line 2, column 1]
2013-10-28 17:06:32,802 - RHS of #set statement is null. Context will not be modified. index.html[line 3, column 1]
2013-10-28 17:06:32,802 - RHS of #set statement is null. Context will not be modified. index.html[line 3, column 1]
2013-10-28 17:06:32,802 - RHS of #set statement is null. Context will not be modified. index.html[line 3, column 1]
2013-10-28 17:06:32,802 - RHS of #set statement is null. Context will not be modified. index.html[line 9, column 1]
2013-10-28 17:06:32,802 - RHS of #set statement is null. Context will not be modified. index.html[line 9, column 1]
2013-10-28 17:06:32,802 - RHS of #set statement is null. Context will not be modified. index.html[line 9, column 1]
2013-10-28 17:06:32,812 - ResourceManager : found footer.html with loader org.ow2.frascati.implementation.velocity.ClassLoaderResourceLoader
2013-10-28 17:06:32,812 - ResourceManager : found footer.html with loader org.ow2.frascati.implementation.velocity.ClassLoaderResourceLoader
2013-10-28 17:06:32,812 - ResourceManager : found footer.html with loader org.ow2.frascati.implementation.velocity.ClassLoaderResourceLoader
