2013-09-27 19:59:46,903 - ResourceManager : found experimentMenu.html with loader org.ow2.frascati.implementation.velocity.ClassLoaderResourceLoader
2013-09-27 20:00:04,694 - ResourceManager : found publisher/moduleEditor.html with loader org.ow2.frascati.implementation.velocity.ClassLoaderResourceLoader
2013-09-27 20:00:04,697 - ResourceManager : found header.html with loader org.ow2.frascati.implementation.velocity.ClassLoaderResourceLoader
2013-09-27 20:00:04,701 - ResourceManager : found experimentMenu.html with loader org.ow2.frascati.implementation.velocity.ClassLoaderResourceLoader
2013-09-27 20:02:51,510 - ResourceManager : found publisher/moduleEditor.html with loader org.ow2.frascati.implementation.velocity.ClassLoaderResourceLoader
2013-09-27 20:02:51,513 - ResourceManager : found header.html with loader org.ow2.frascati.implementation.velocity.ClassLoaderResourceLoader
2013-09-27 20:02:51,516 - ResourceManager : found experimentMenu.html with loader org.ow2.frascati.implementation.velocity.ClassLoaderResourceLoader
